<?xml version="1.0" encoding="UTF-8" standalone="no"?>
<svg style="enable-background:new" xmlns="http://www.w3.org/2000/svg" height="512" viewBox="0 0 512 512" width="512" version="1.1" xmlns:xlink="http://www.w3.org/1999/xlink">
 <defs>
  <linearGradient id="b" y2="496" gradientUnits="userSpaceOnUse" x2="319.9" gradientTransform="matrix(1.021 0 0 1.17 -13.09 -43.62)" y1="16" x1="319.9">
   <stop stop-opacity="0" offset="0"/>
   <stop offset=".5048"/>
   <stop stop-opacity="0" offset="1"/>
  </linearGradient>
  <linearGradient id="a" y2="2.651" gradientUnits="userSpaceOnUse" x2="384.1" gradientTransform="matrix(1 0 0 -1.12 0 522.4)" y1="480" x1="384.1">
   <stop stop-color="#48c5b6" offset="0"/>
   <stop stop-color="#62d3bb" offset="1"/>
  </linearGradient>
 </defs>
 <g>
  <path d="m0 0v183.9 144.2 183.9h512v-183.9-144.2-183.9h-512z" fill="#4d4d4d"/>
  <path opacity=".07" d="m0 256v72.1 183.9h512v-183.9-72.1h-512z" fill="#fff"/>
  <path opacity=".1" d="m248.4 536.9v-561.8h261.1v561.8z" fill="url(#b)"/>
  <path opacity=".1" d="m250.7 512.7v-513.6h261.3v513.6z"/>
  <path d="m256.2 512.7v-512.7h255.8v512.7z" fill="url(#a)"/>
 </g>
 <g fill="#f2f2f2">
  <path d="m148 120v44h-44v16h44v44h16v-44h44v-16h-44v-44z"/>
  <rect transform="matrix(0,1,1,0,0,0)" height="104" width="16" y="104" x="332"/>
  <path d="m304 224v16h104v-16z"/>
  <path d="m304 272v16h104v-16z"/>
 </g>
</svg>
